^C:\PROJECTS\ESMERALDA\COMSERVER\DEBUG\COMSERVER.EXE.EMBED.MANIFEST.RES|C:\PROJECTS\ESMERALDA\COMSERVER\DEBUG\COMSERVER.OBJ|C:\PROJECTS\ESMERALDA\COMSERVER\DEBUG\COMSERVER.RES|C:\PROJECTS\ESMERALDA\COMSERVER\DEBUG\COMSERVER_I.OBJ|C:\PROJECTS\ESMERALDA\COMSERVER\DEBUG\STDAFX.OBJ|C:\PROJECTS\ESMERALDA\COMSERVER\DEBUG\XDLLDATA.OBJ
C:\PROJECTS\ESMERALDA\DEBUG\COMSERVER.ILK
C:\PROJECTS\ESMERALDA\DEBUG\COMSERVER.EXE
C:\PROJECTS\ESMERALDA\COMSERVER\DEBUG\COMSERVER.EXE.INTERMEDIATE.MANIFEST
C:\PROJECTS\ESMERALDA\DEBUG\COMSERVER.PDB
