^C:\PROJECTS\ESMERALDA\TESTPROJECT\SERVICELIBTEST\DEBUG\SERVICELIBTEST_MANIFEST.RC
C:\WINDOWS\GLOBALIZATION\SORTING\SORTDEFAULT.NLS
C:\PROJECTS\ESMERALDA\TESTPROJECT\SERVICELIBTEST\DEBUG\SERVICELIBTEST.EXE.EMBED.MANIFEST
^D:\PROJECTS\ESMERALDA\TESTPROJECT\SERVICELIBTEST\DEBUG\SERVICELIBTEST_MANIFEST.RC
D:\PROJECTS\ESMERALDA\TESTPROJECT\SERVICELIBTEST\DEBUG\SERVICELIBTEST.EXE.EMBED.MANIFEST
