^C:\PROJECTS\ESMERALDA\MINIDCOMEXAMPLE\CLIENT.CPP
C:\PROJECTS\ESMERALDA\MINIDCOMEXAMPLE\DEBUG\VC100.PDB
^D:\PROJECTS\ESMERALDA\MINIDCOMEXAMPLE\SERVER.CPP
D:\PROJECTS\ESMERALDA\MINIDCOMEXAMPLE\DEBUG\SERVER.SBR
D:\PROJECTS\ESMERALDA\MINIDCOMEXAMPLE\DEBUG\SERVER.OBJ
D:\PROJECTS\ESMERALDA\MINIDCOMEXAMPLE\DEBUG\VC100.PDB
^D:\PROJECTS\ESMERALDA\MINIDCOMEXAMPLE\SERVER_I.C
D:\PROJECTS\ESMERALDA\MINIDCOMEXAMPLE\DEBUG\SERVER_I.SBR
D:\PROJECTS\ESMERALDA\MINIDCOMEXAMPLE\DEBUG\SERVER_I.OBJ
D:\PROJECTS\ESMERALDA\MINIDCOMEXAMPLE\DEBUG\VC100.PDB
